%YAML 1.1
%TAG !u! tag:unity3d.com,2011:
--- !u!114 &11400000
MonoBehaviour:
  m_ObjectHideFlags: 0
  m_CorrespondingSourceObject: {fileID: 0}
  m_PrefabInstance: {fileID: 0}
  m_PrefabAsset: {fileID: 0}
  m_GameObject: {fileID: 0}
  m_Enabled: 1
  m_EditorHideFlags: 0
  m_Script: {fileID: 11500000, guid: 0ab734a268a4b5d408d3877c7a2dcfcf, type: 3}
  m_Name: New Card
  m_EditorClassIdentifier: 
  id: 1ac4743e-933c-4f71-894e-464de6fc3be7
  type: {fileID: 11400000, guid: d891a36af3cb687428740cbbdcdd40b7, type: 2}
  properties:
  - text: Dren
    number: 0
    sprite: {fileID: 0}
    cardElement: {fileID: 11400000, guid: eb85ebe1707c04a4d8f1924c186e7f68, type: 2}
  - text: From planet Drenoor
    number: 0
    sprite: {fileID: 0}
    cardElement: {fileID: 11400000, guid: 161d84b62cf6de04e88d8101dc09a32d, type: 2}
  - text: Art
    number: 0
    sprite: {fileID: 21300000, guid: 674d21fec48bc9148ab80d449f990de4, type: 3}
    cardElement: {fileID: 11400000, guid: 49abccfd21528804994e91444741d891, type: 2}
  - text: Mana
    number: 3
    sprite: {fileID: 0}
    cardElement: {fileID: 11400000, guid: ecf986227b0ef134bb7b9be5094a715c, type: 2}
  - text: Health
    number: 2
    sprite: {fileID: 0}
    cardElement: {fileID: 11400000, guid: 04e3e394d08f46d47846beb03777bb08, type: 2}
  - text: Attack
    number: 7
    sprite: {fileID: 0}
    cardElement: {fileID: 11400000, guid: 74c223d1345e4a4469955b41ca6465c0, type: 2}
