{
  "project_info": {
    "project_number": "910888797549",
    "firebase_url": "https://ccd-game.firebaseio.com",
    "project_id": "ccd-game",
    "storage_bucket": "ccd-game.appspot.com"
  },
  "client": [
    {
      "client_info": {
        "mobilesdk_app_id": "1:910888797549:android:6a656ea4cc4e8bd1d60664",
        "android_client_info": {
          "package_name": "com.nicksilver.ccd"
        }
      },
      "oauth_client": [
        {
          "client_id": "910888797549-vpf4brj32mrni3u6bml6inj07t10seu8.apps.googleusercontent.com",
          "client_type": 3
        }
      ],
      "api_key": [
        {
          "current_key": "AIzaSyDKMzFQbWLMLV_dzrT4VmNZdYmo10PF_v0"
        }
      ],
      "services": {
        "appinvite_service": {
          "other_platform_oauth_client": [
            {
              "client_id": "910888797549-vpf4brj32mrni3u6bml6inj07t10seu8.apps.googleusercontent.com",
              "client_type": 3
            },
            {
              "client_id": "910888797549-gla9qbr9nd2khsuodo9mrt5n0t0orjr0.apps.googleusercontent.com",
              "client_type": 2,
              "ios_info": {
                "bundle_id": "com.nicksilver.ccd"
              }
            }
          ]
        }
      }
    }
  ],
  "configuration_version": "1"
}